doc/gesammelte_infos/iec_bus_captures/1541_rebuild_turrican1.vcd
$timescale 1 ns $end
$scope module top $end
$var wire 1 ! ATN $end
$var wire 1 " CLK $end
$var wire 1 # DATA $end
$upscope $end
$enddefinitions $end
#0
1!
1"
1#
#1611843291
0!
#1611843333
0#
#1611861541
0"
#1612908250
1"
#1612996125
1#
#1613045250
0"
#1613094000
0#
#1613119416
1"
#1613145791
0"
#1613145833
1#
#1613191458
0#
#1613216875
1"
#1613243250
0"
#1613243291
1#
#1613288916
0#
#1613314333
1"
#1613340708
0"
#1613340750
1#
#1613409750
1"
#1613436125
0"
#1613481791
0#
#1613507208
1"
#1613533583
0"
#1613533625
1#
#1613602666
1"
#1613629000
0"
#1613674708
0#
#1613700083
1"
#1613726458
0"
#1613726500
1#
#1613772166
0#
#1613797583
1"
#1613823916
0"
#1613823958
1#
#1613896333
0#
#1615010750
1"
#1615078708
1#
#1615120333
0"
#1615169083
0#
#1615194500
1"
#1615220833
0"
#1615220875
1#
#1615266541
0#
#1615291958
1"
#1615318333
0"
#1615318375
1#
#1615364000
0#
#1615389416
1"
#1615415791
0"
#1615415833
1#
#1615461458
0#
#1615486875
1"
#1615513250
0"
#1615513291
1#
#1615582291
1"
#1615608666
0"
#1615677750
1"
#1615704083
0"
#1615773166
1"
#1615799500
0"
#1615868583
1"
#1615894958
0"
#1615965916
0#
#1616006791
1!
#1616176166
1"
#1616248000
1#
#1616806125
0#
#1616879208
1#
#1616913208
0"
#1616961916
0#
#1616987333
1"
#1617013708
0"
#1617013750
1#
#1617082750
1"
#1617109125
0"
#1617154833
0#
#1617180208
1"
#1617206583
0"
#1617206625
1#
#1617275666
1"
#1617302041
0"
#1617347708
0#
#1617373125
1"
#1617399500
0"
#1617399541
1#
#1617468541
1"
#1617494916
0"
#1617540583
0#
#1617566000
1"
#1617592375
0"
#1617592416
1#
#1617638041
0#
#1617663458
1"
#1617689833
0"
#1617689875
1#
#1617768375
0#
#1617859416
0!
#1618924375
1"
#1619012791
1#
#1619061375
0"
#1619133500
1"
#1619159833
0"
#1619228916
1"
#1619255291
0"
#1619368000
1"
#1619394375
0"
#1619463416
1"
#1619489791
0"
#1619558875
1"
#1619585208
0"
#1619654291
1"
#1619680666
0"
#1619726333
0#
#1619751750
1"
#1619778125
0"
#1619778166
1#
#1619867458
0#
#1619892875
1"
#1619919208
0"
#1619919250
1#
#1619991000
0#
#1620037166
1!
#1620081083
1#
#1620115166
1"
#1620246125
0!
#1620246166
0"
0#
#1620246208
1"
#1620264375
0"
#1621441041
1"
#3190398125
1#
#3190434750
0"
#3190483500
0#
#3190508916
1"
#3190535291
0"
#3190535333
1#
#3190580958
0#
#3190606375
1"
#3190632750
0"
#3190632791
1#
#3190678416
0#
#3190703833
1"
#3190730208
0"
#3190730250
1#
#3190799250
1"
#3190825625
0"
#3190871291
0#
#3190896708
1"
#3190923083
0"
#3190923125
1#
#3190968750
0#
#3190994208
1"
#3191020541
0"
#3191020583
1#
#3191089625
1"
#3191115958
0"
#3191161666
0#
#3191187083
1"
#3191213416
0"
#3191213458
1#
#3191285333
0#
#3192398208
1"
#3192461750
1#
#3192507833
0"
#3192556541
0#
#3192581958
1"
#3192608333
0"
#3192608375
1#
#3192654000
0#
#3192679416
1"
#3192705791
0"
#3192705833
1#
#3192751458
0#
#3192776875
1"
#3192803250
0"
#3192803291
1#
#3192848916
0#
#3192874333
1"
#3192900708
0"
#3192900750
1#
#3192946375
0#
#3192971791
1"
#3192998166
0"
#3192998208
1#
#3193067250
1"
#3193093583
0"
#3193162666
1"
#3193189041
0"
#3193234708
0#
#3193260125
1"
#3193286500
0"
#3193286541
1#
#3193361958
0#
#3193428791
1!
#3193450958
1"
#3193500000
0"
#3193638083
1"
#3193691583
1#
#3193781083
0"
#3193901083
0#
#3193926166
1"
#3194001125
0"
#3194020166
1#
#3194115208
1"
#3194190208
0"
#3194304250
1"
#3194379250
0"
#3194470250
0#
#3194495333
1"
#3194570291
0"
#3194589333
1#
#3194661333
0#
#3194686375
1"
#3194761375
0"
#3194780416
1#
#3194875416
1"
#3194950416
0"
#3195041416
0#
#3195066500
1"
#3195141458
0"
#3195160500
1#
#3195232500
0#
#3195257541
1"
#3195332541
0"
#3195351583
1#
#3195372708
0#
#3195687666
1"
#3195791000
1#
#3195882666
0"
#3196025750
1"
#3196100750
0"
#3196214833
1"
#3196289791
0"
#3196380833
0#
#3196405875
1"
#3196480875
0"
#3196499875
1#
#3196571875
0#
#3196596916
1"
#3196671916
0"
#3196690958
1#
#3196762916
0#
#3196788000
1"
#3196862958
0"
#3196882000
1#
#3196954000
0#
#3196979041
1"
#3197054041
0"
#3197073041
1#
#3197145041
0#
#3197170083
1"
#3197245083
0"
#3197264125
1#
#3197336083
0#
#3197361166
1"
#3197436125
0"
#3197455166
1#
#3197480291
0#
#3197791291
1"
#3200251833
1#
#3200326958
0"
#3200447000
0#
#3200472041
1"
#3200547041
0"
#3200566083
1#
#3200638041
0#
#3200663083
1"
#3200738083
0"
#3200757125
1#
#3200852166
1"
#3200927125
0"
#3201018166
0#
#3201043208
1"
#3201118208
0"
#3201137250
1#
#3201232250
1"
#3201307250
0"
#3201421333
1"
#3201496291
0"
#3201587333
0#
#3201612375
1"
#3201687375
0"
#3201706416
1#
#3201778375
0#
#3201803416
1"
#3201878416
0"
#3201897458
1#
#3201962416
0#
#3202285583
1"
#3202348250
1#
#3202428583
0"
#3202571666
1"
#3202646625
0"
#3202760708
1"
#3202835708
0"
#3202926708
0#
#3202951750
1"
#3203026750
0"
#3203045791
1#
#3203117791
0#
#3203142833
1"
#3203217791
0"
#3203236833
1#
#3203308833
0#
#3203333875
1"
#3203408875
0"
#3203427916
1#
#3203499875
0#
#3203524916
1"
#3203599916
0"
#3203618958
1#
#3203690916
0#
#3203716000
1"
#3203790958
0"
#3203810000
1#
#3203882000
0#
#3203907041
1"
#3203982041
0"
#3204001083
1#
#3204026333
0#
#3204575250
1"
#3204631416
1#
#3204718250
0"
#3204861333
1"
#3204936291
0"
#3205027333
0#
#3205052375
1"
#3205127375
0"
#3205146416
1#
#3205241458
1"
#3205316416
0"
#3205430500
1"
#3205505458
0"
#3205596500
0#
#3205621541
1"
#3205696541
0"
#3205715583
1#
#3205810625
1"
#3205885583
0"
#3205999666
1"
#3206074666
0"
#3206188708
1"
#3206263708
0"
#3206306500
0#
#3206618833
1"
#3206681125
1#
#3206761833
0"
#3206881875
0#
#3206906916
1"
#3206981916
0"
#3207000958
1#
#3207096000
1"
#3207170958
0"
#3207285041
1"
#3207360041
0"
#3207451041
0#
#3207476083
1"
#3207551083
0"
#3207570125
1#
#3207665166
1"
#3207740125
0"
#3207854208
1"
#3207929208
0"
#3208043291
1"
#3208118250
0"
#3208232333
1"
#3208307291
0"
#3208349083
0#
#3208662458
1"
#3208718666
1#
#3208805458
0"
#3208925500
0#
#3208950541
1"
#3209025541
0"
#3209044583
1#
#3209139583
1"
#3209214583
0"
#3209328666
1"
#3209403625
0"
#3209517708
1"
#3209592708
0"
#3209706750
1"
#3209781750
0"
#3209895833
1"
#3209970791
0"
#3210061833
0#
#3210086875
1"
#3210161875
0"
#3210180916
1#
#3210252875
0#
#3210277916
1"
#3210352916
0"
#3210371958
1#
#3210395750
0#
#3210708083
1"
#3210812000
1#
#3210903083
0"
#3211046166
1"
#3211121166
0"
#3211212166
0#
#3211237208
1"
#3211312208
0"
#3211331250
1#
#3211403250
0#
#3211428291
1"
#3211503250
0"
#3211522291
1#
#3211594291
0#
#3211619333
1"
#3211694333
0"
#3211713375
1#
#3211808375
1"
#3211883375
0"
#3211997458
1"
#3212072416
0"
#3212186500
1"
#3212261500
0"
#3212375541
1"
#3212450541
0"
#3212485041
0#
#3212805708
1"
#3212870833
1#
#3212948708
0"
#3213091791
1"
#3213166750
0"
#3213280833
1"
#3213355791
0"
#3213469875
1"
#3213544875
0"
#3213658958
1"
#3213733916
0"
#3213824958
0#
#3213850000
1"
#3213925000
0"
#3213944041
1#
#3214039041
1"
#3214114041
0"
#3214205083
0#
#3214230125
1"
#3214305083
0"
#3214324125
1#
#3214396125
0#
#3214421166
1"
#3214496166
0"
#3214515208
1#
#3214539833
0#
#3214851291
1"
#3214898208
1#
#3214953291
0"
#3215096375
1"
#3215171333
0"
#3215285416
1"
#3215360416
0"
#3215451416
0#
#3215476500
1"
#3215551458
0"
#3215570500
1#
#3215642500
0#
#3215667541
1"
#3215742541
0"
#3215761583
1#
#3215856583
1"
#3215931583
0"
#3216045666
1"
#3216120625
0"
#3216234708
1"
#3216309708
0"
#3216423750
1"
#3216498750
0"
#3216543833
0#
#3216853875
1"
#3216918458
1#
#3216996875
0"
#3217116916
0#
#3217141958
1"
#3217216958
0"
#3217236000
1#
#3217331041
1"
#3217406000
0"
#3217520083
1"
#3217595083
0"
#3217686083
0#
#3217711166
1"
#3217786125
0"
#3217805166
1#
#3217877166
0#
#3217902208
1"
#3217977208
0"
#3217996250
1#
#3218091250
1"
#3218166250
0"
#3218280333
1"
#3218355291
0"
#3218446333
0#
#3218471375
1"
#3218546375
0"
#3218565416
1#
#3218589458
0#
#3218901500
1"
#3218964125
1#
#3219044500
0"
#3219164541
0#
#3219189583
1"
#3219264583
0"
#3219283625
1#
#3219378625
1"
#3219453625
0"
#3219567708
1"
#3219642666
0"
#3219756750
1"
#3219831750
0"
#3219945791
1"
#3220020791
0"
#3220134875
1"
#3220209833
0"
#3220323916
1"
#3220398916
0"
#3220513000
1"
#3220587958
0"
#3220631041
0#
#3221181166
1"
#3221236125
1#
#3221324166
0"
#3221467250
1"
#3221542250
0"
#3221633250
0#
#3221658333
1"
#3221733291
0"
#3221752333
1#
#3221847375
1"
#3221922375
0"
#3222013375
0#
#3222038416
1"
#3222113416
0"
#3222132458
1#
#3222204416
0#
#3222229500
1"
#3222304458
0"
#3222323500
1#
#3222418541
1"
#3222493541
0"
#3222584541
0#
#3222609583
1"
#3222684583
0"
#3222703625
1#
#3222798666
1"
#3222873625
0"
#3222935583
0#
#3223228791
1"
#3223293958
1#
#3223371791
0"
#3223491833
0#
#3223516875
1"
#3223591833
0"
#3223610875
1#
#3223682875
0#
#3223707916
1"
#3223782916
0"
#3223801958
1#
#3223896958
1"
#3223971958
0"
#3224063000
0#
#3224088041
1"
#3224163000
0"
#3224182041
1#
#3224277083
1"
#3224352083
0"
#3224466125
1"
#3224541125
0"
#3224655208
1"
#3224730166
0"
#3224844250
1"
#3224919250
0"
#3224982208
0#
#3225274375
1"
#3225340625
1#
#3225417375
0"
#3225560458
1"
#3225635458
0"
#3225726458
0#
#3225751500
1"
#3225826500
0"
#3225845541
1#
#3225940583
1"
#3226015541
0"
#3226129625
1"
#3226204625
0"
#3226295625
0#
#3226320666
1"
#3226395666
0"
#3226414708
1#
#3226509750
1"
#3226584708
0"
#3226698791
1"
#3226773791
0"
#3226887833
1"
#3226962833
0"
#3227036000
0#
#3227370000
1"
#3227452250
1#
#3227513000
0"
#3227656083
1"
#3227731041
0"
#3227822083
0#
#3227847125
1"
#3227922125
0"
#3227941166
1#
#3228036208
1"
#3228111166
0"
#3228202208
0#
#3228227250
1"
#3228302208
0"
#3228321250
1#
#3228416291
1"
#3228491291
0"
#3228605375
1"
#3228680333
0"
#3228794416
1"
#3228869375
0"
#3228983458
1"
#3229058458
0"
#3229092791
0#
#3229413583
1"
#3229478583
1#
#3229556583
0"
#3229676625
0#
#3229701666
1"
#3229776666
0"
#3229795708
1#
#3229867666
0#
#3229892750
1"
#3229967708
0"
#3229986750
1#
#3230058750
0#
#3230083791
1"
#3230158791
0"
#3230177833
1#
#3230272833
1"
#3230347833
0"
#3230461916
1"
#3230536875
0"
#3230627916
0#
#3230652958
1"
#3230727958
0"
#3230747000
1#
#3230842000
1"
#3230917000
0"
#3231031083
1"
#3231106041
0"
#3231140458
0#
#3231461208
1"
#3231526250
1#
#3231604208
0"
#3231747291
1"
#3231822250
0"
#3231913291
0#
#3231938333
1"
#3232013333
0"
#3232032375
1#
#3232104333
0#
#3232129375
1"
#3232204375
0"
#3232223416
1#
#3232318458
1"
#3232393416
0"
#3232484458
0#
#3232509500
1"
#3232584500
0"
#3232603541
1#
#3232698541
1"
#3232773541
0"
#3232864583
0#
#3232889625
1"
#3232964583
0"
#3232983625
1#
#3233078666
1"
#3233153666
0"
#3233188125
0#
#3233508791
1"
#3233573958
1#
#3233651791
0"
#3233771833
0#
#3233796875
1"
#3233871875
0"
#3233890916
1#
#3233985916
1"
#3234060916
0"
#3234151958
0#
#3234177000
1"
#3234251958
0"
#3234271000
1#
#3234366041
1"
#3234441041
0"
#3234532041
0#
#3234557083
1"
#3234632083
0"
#3234651125
1#
#3234723125
0#
#3234748166
1"
#3234823125
0"
#3234842166
1#
#3234937208
1"
#3235012208
0"
#3235126250
1"
#3235201250
0"
#3235235791
0#
#3235556416
1"
#3235621625
1#
#3235699416
0"
#3235842500
1"
#3235917458
0"
#3236008500
0#
#3236033541
1"
#3236108500
0"
#3236127541
1#
#3236222583
1"
#3236297583
0"
#3236411666
1"
#3236486625
0"
#3236577666
0#
#3236602708
1"
#3236677666
0"
#3236696708
1#
#3236768708
0#
#3236793750
1"
#3236868750
0"
#3236887791
1#
#3236959750
0#
#3236984833
1"
#3237059791
0"
#3237078833
1#
#3237173875
1"
#3237248833
0"
#3237293625
0#
#3237842083
1"
#3237887541
1#
#3237933041
0"
#3238053083
0#
#3238078125
1"
#3238153125
0"
#3238172166
1#
#3238267208
1"
#3238342166
0"
#3238456250
1"
#3238531208
0"
#3238622250
0#
#3238647291
1"
#3238722291
0"
#3238741333
1#
#3238813291
0#
#3238838375
1"
#3238913333
0"
#3238932375
1#
#3239027416
1"
#3239102416
0"
#3239193416
0#
#3239218458
1"
#3239293458
0"
#3239312500
1#
#3239384458
0#
#3239409541
1"
#3239484500
0"
#3239503541
1#
#3239527083
0#
#3239839666
1"
#3239901708
1#
#3239982666
0"
#3240125750
1"
#3240200708
0"
#3240314791
1"
#3240389791
0"
#3240480791
0#
#3240505833
1"
#3240580833
0"
#3240599875
1#
#3240671875
0#
#3240696916
1"
#3240771875
0"
#3240790916
1#
#3240862916
0#
#3240887958
1"
#3240962958
0"
#3240982000
1#
#3241053958
0#
#3241079000
1"
#3241154000
0"
#3241173041
1#
#3241245041
0#
#3241270083
1"
#3241345041
0"
#3241364083
1#
#3241436083
0#
#3241461125
1"
#3241536125
0"
#3241555166
1#
#3241580833
0#
#3241891250
1"
#3241955500
1#
#3242034250
0"
#3242177333
1"
#3242252333
0"
#3242343333
0#
#3242368375
1"
#3242443375
0"
#3242462416
1#
#3242534416
0#
#3242559458
1"
#3242634416
0"
#3242653458
1#
#3242748500
1"
#3242823500
0"
#3242914500
0#
#3242939583
1"
#3243014541
0"
#3243033583
1#
#3243128625
1"
#3243203583
0"
#3243294625
0#
#3243319666
1"
#3243394666
0"
#3243413708
1#
#3243508750
1"
#3243583708
0"
#3243626500
0#
#3243938875
1"
#3244085375
1#
#3244133875
0"
#3244276958
1"
#3244351958
0"
#3244442958
0#
#3244468000
1"
#3244543000
0"
#3244562041
1#
#3244634000
0#
#3244659083
1"
#3244734041
0"
#3244753083
1#
#3244825083
0#
#3244850125
1"
#3244925125
0"
#3244944166
1#
#3245039166
1"
#3245114166
0"
#3245228250
1"
#3245303208
0"
#3245417291
1"
#3245492291
0"
#3245606333
1"
#3245681333
0"
#3245724916
0#
#3246036458
1"
#3246099541
1#
#3246179458
0"
#3246322541
1"
#3246397541
0"
#3246488583
0#
#3246513625
1"
#3246588583
0"
#3246607625
1#
#3246702666
1"
#3246777666
0"
#3246891708
1"
#3246966708
0"
#3247057750
0#
#3247082791
1"
#3247157750
0"
#3247176791
1#
#3247248791
0#
#3247273833
1"
#3247348833
0"
#3247367875
1#
#3247439833
0#
#3247464875
1"
#3247539875
0"
#3247558916
1#
#3247653958
1"
#3247728916
0"
#3247770541
0#
#3248084083
1"
#3248145208
1#
#3248227083
0"
#3248370166
1"
#3248445125
0"
#3248559208
1"
#3248634208
0"
#3248748250
1"
#3248823250
0"
#3248914291
0#
#3248939333
1"
#3249014291
0"
#3249033333
1#
#3249105333
0#
#3249130375
1"
#3249205375
0"
#3249224416
1#
#3249319416
1"
#3249394416
0"
#3249485458
0#
#3249510500
1"
#3249585458
0"
#3249604500
1#
#3249676500
0#
#3249701541
1"
#3249776541
0"
#3249795583
1#
#3249818208
0#
#3250131666
1"
#3250187791
1#
#3250274666
0"
#3250417750
1"
#3250492750
0"
#3250606833
1"
#3250681791
0"
#3250772833
0#
#3250797875
1"
#3250872833
0"
#3250891875
1#
#3250963875
0#
#3250988916
1"
#3251063916
0"
#3251082958
1#
#3251154916
0#
#3251180000
1"
#3251254958
0"
#3251274000
1#
#3251346000
0#
#3251371041
1"
#3251446041
0"
#3251465083
1#
#3251537041
0#
#3251562083
1"
#3251637083
0"
#3251656125
1#
#3251728083
0#
#3251753166
1"
#3251828125
0"
#3251847166
1#
#3251872000
0#
#3252183291
1"
#3252230375
1#
#3252285250
0"
#3252428333
1"
#3252503333
0"
#3252594375
0#
#3252619416
1"
#3252694375
0"
#3252713416
1#
#3252785416
0#
#3252810458
1"
#3252885458
0"
#3252904500
1#
#3252999500
1"
#3253074500
0"
#3253165541
0#
#3253190583
1"
#3253265541
0"
#3253284583
1#
#3253379625
1"
#3253454625
0"
#3253545625
0#
#3253570666
1"
#3253645666
0"
#3253664708
1#
#3253759750
1"
#3253834708
0"
#3253879041
0#
#3254427958
1"
#3254484125
1#
#3254570958
0"
#3254690958
0#
#3254716041
1"
#3254791000
0"
#3254810041
1#
#3254882041
0#
#3254907083
1"
#3254982083
0"
#3255001125
1#
#3255073083
0#
#3255098125
1"
#3255173125
0"
#3255192166
1#
#3255264166
0#
#3255289208
1"
#3255364166
0"
#3255383208
1#
#3255455208
0#
#3255480250
1"
#3255555250
0"
#3255574291
1#
#3255646250
0#
#3255671333
1"
#3255746291
0"
#3255765333
1#
#3255837333
0#
#3255862375
1"
#3255937375
0"
#3255956375
1#
#3256028375
0#
#3256053416
1"
#3256128416
0"
#3256147458
1#
#3256201833
0#
#3256535583
1"
#3256587625
1#
#3256678583
0"
#3256821666
1"
#3256896625
0"
#3256987666
0#
#3257012708
1"
#3257087708
0"
#3257106750
1#
#3257201791
1"
#3257276750
0"
#3257390833
1"
#3257465833
0"
#3257556833
0#
#3257581875
1"
#3257656875
0"
#3257675916
1#
#3257747916
0#
#3257772958
1"
#3257847916
0"
#3257866958
1#
#3257938958
0#
#3257964000
1"
#3258039000
0"
#3258058041
1#
#3258153041
1"
#3258228041
0"
#3258270833
0#
#3258583208
1"
#3258629208
1#
#3258674166
0"
#3258794208
0#
#3258819250
1"
#3258894250
0"
#3258913291
1#
#3258985250
0#
#3259010333
1"
#3259085291
0"
#3259104333
1#
#3259176333
0#
#3259201375
1"
#3259276375
0"
#3259295416
1#
#3259367375
0#
#3259392416
1"
#3259467416
0"
#3259486458
1#
#3259558458
0#
#3259583500
1"
#3259658458
0"
#3259677500
1#
#3259772541
1"
#3259847541
0"
#3259938541
0#
#3259963583
1"
#3260038583
0"
#3260057625
1#
#3260129625
0#
#3260154666
1"
#3260229666
0"
#3260248666
1#
#3260289041
0#
#3260584791
1"
#3260705333
1#
#3260779791
0"
#3260922875
1"
#3260997875
0"
#3261088916
0#
#3261113958
1"
#3261188916
0"
#3261207958
1#
#3261279958
0#
#3261305000
1"
#3261380000
0"
#3261399041
1#
#3261471000
0#
#3261496083
1"
#3261571041
0"
#3261590083
1#
#3261685125
1"
#3261760083
0"
#3261851125
0#
#3261876166
1"
#3261951166
0"
#3261970208
1#
#3262065250
1"
#3262140208
0"
#3262254291
1"
#3262329291
0"
#3262371250
0#
#3262684416
1"
#3262740791
1#
#3262827416
0"
#3262970500
1"
#3263045500
0"
#3263136500
0#
#3263161583
1"
#3263236541
0"
#3263255583
1#
#3263350625
1"
#3263425625
0"
#3263539666
1"
#3263614666
0"
#3263705708
0#
#3263730750
1"
#3263805708
0"
#3263824750
1#
#3263896750
0#
#3263921791
1"
#3263996791
0"
#3264015833
1#
#3264087791
0#
#3264112875
1"
#3264187833
0"
#3264206875
1#
#3264301916
1"
#3264376875
0"
#3264419916
0#
#3264732041
1"
#3264778333
1#
#3264823041
0"
#3264966125
1"
#3265041083
0"
#3265132125
0#
#3265157166
1"
#3265232166
0"
#3265251208
1#
#3265323166
0#
#3265348208
1"
#3265423208
0"
#3265442250
1#
#3265514250
0#
#3265539291
1"
#3265614250
0"
#3265633291
1#
#3265705291
0#
#3265730333
1"
#3265805333
0"
#3265824375
1#
#3265919416
1"
#3265994375
0"
#3266085416
0#
#3266110458
1"
#3266185458
0"
#3266204500
1#
#3266276458
0#
#3266301500
1"
#3266376500
0"
#3266395541
1#
#3266430041
0#
#3266731625
1"
#3266788416
1#
#3266874625
0"
#3266994666
0#
#3267019708
1"
#3267094708
0"
#3267113750
1#
#3267208791
1"
#3267283750
0"
#3267374791
0#
#3267399833
1"
#3267474833
0"
#3267493875
1#
#3267565833
0#
#3267590916
1"
#3267665875
0"
#3267684916
1#
#3267779958
1"
#3267854958
0"
#3267945958
0#
#3267971000
1"
#3268046000
0"
#3268065041
1#
#3268160083
1"
#3268235041
0"
#3268349125
1"
#3268424125
0"
#3268467541
0#
#3268779250
1"
#3268825958
1#
#3268870250
0"
#3269013333
1"
#3269088291
0"
#3269179333
0#
#3269204375
1"
#3269279375
0"
#3269298416
1#
#3269393458
1"
#3269468416
0"
#3269582500
1"
#3269657500
0"
#3269748500
0#
#3269773541
1"
#3269848541
0"
#3269867583
1#
#3269939583
0#
#3269964625
1"
#3270039583
0"
#3270058625
1#
#3270130625
0#
#3270155666
1"
#3270230666
0"
#3270249708
1#
#3270344750
1"
#3270419708
0"
#3270463458
0#
#3271012916
1"
#3271068541
1#
#3271155916
0"
#3271299000
1"
#3271374000
0"
#3271465000
0#
#3271490083
1"
#3271565041
0"
#3271584083
1#
#3271656083
0#
#3271681125
1"
#3271756125
0"
#3271775166
1#
#3271847125
0#
#3271872166
1"
#3271947166
0"
#3271966208
1#
#3272061250
1"
#3272136208
0"
#3272227250
0#
#3272252291
1"
#3272327291
0"
#3272346333
1#
#3272441333
1"
#3272516333
0"
#3272630416
1"
#3272705375
0"
#3272749708
0#
#3273060541
1"
#3273108083
1#
#3273162500
0"
#3273305583
1"
#3273380583
0"
#3273471625
0#
#3273496666
1"
#3273571625
0"
#3273590666
1#
#3273662666
0#
#3273687708
1"
#3273762708
0"
#3273781750
1#
#3273853708
0#
#3273878750
1"
#3273953750
0"
#3273972791
1#
#3274067833
1"
#3274142791
0"
#3274233833
0#
#3274258875
1"
#3274333875
0"
#3274352916
1#
#3274447916
1"
#3274522916
0"
#3274637000
1"
#3274711958
0"
#3274756750
0#
#3275067125
1"
#3275115166
1#
#3275169125
0"
#3275312208
1"
#3275387166
0"
#3275478208
0#
#3275503250
1"
#3275578250
0"
#3275597250
1#
#3275692291
1"
#3275767291
0"
#3275881375
1"
#3275956333
0"
#3276047375
0#
#3276072416
1"
#3276147416
0"
#3276166416
1#
#3276238416
0#
#3276263458
1"
#3276338458
0"
#3276357500
1#
#3276429458
0#
#3276454541
1"
#3276529500
0"
#3276548541
1#
#3276643583
1"
#3276718541
0"
#3276762791
0#
#3277073708
1"
#3277221708
1#
#3277268708
0"
#3277411791
1"
#3277486791
0"
#3277577791
0#
#3277602875
1"
#3277677833
0"
#3277696875
1#
#3277791916
1"
#3277866916
0"
#3277957916
0#
#3277982958
1"
#3278057958
0"
#3278077000
1#
#3278172041
1"
#3278247000
0"
#3278338041
0#
#3278363083
1"
#3278438083
0"
#3278457125
1#
#3278529083
0#
#3278554125
1"
#3278629125
0"
#3278648166
1#
#3278720166
0#
#3278745208
1"
#3278820166
0"
#3278839208
1#
#3278864291
0#
#3279175333
1"
#3279238916
1#
#3279318333
0"
#3279438375
0#
#3279463416
1"
#3279538375
0"
#3279557416
1#
#3279629416
0#
#3279654458
1"
#3279729458
0"
#3279748500
1#
#3279820458
0#
#3279845500
1"
#3279920500
0"
#3279939541
1#
#3280011541
0#
#3280036583
1"
#3280111541
0"
#3280130583
1#
#3280225625
1"
#3280300625
0"
#3280391625
0#
#3280416666
1"
#3280491666
0"
#3280510708
1#
#3280605750
1"
#3280680708
0"
#3280794791
1"
#3280869791
0"
#3280912958
0#
#3281224916
1"
#3281287625
1#
#3281367916
0"
#3281511000
1"
#3281586000
0"
#3281677000
0#
#3281702083
1"
#3281777041
0"
#3281796083
1#
#3281891125
1"
#3281966083
0"
#3282057125
0#
#3282082166
1"
#3282157166
0"
#3282176208
1#
#3282248166
0#
#3282273250
1"
#3282348208
0"
#3282367250
1#
#3282439250
0#
#3282464291
1"
#3282539291
0"
#3282558291
1#
#3282630291
0#
#3282655333
1"
#3282730333
0"
#3282749375
1#
#3282844416
1"
#3282919375
0"
#3282962666
0#
#3283274541
1"
#3283337291
1#
#3283417541
0"
#3283560625
1"
#3283635583
0"
#3283726625
0#
#3283751666
1"
#3283826666
0"
#3283845708
1#
#3283940708
1"
#3284015708
0"
#3284129791
1"
#3284204750
0"
#3284318833
1"
#3284393833
0"
#3284484833
0#
#3284509875
1"
#3284584875
0"
#3284603916
1#
#3284675875
0#
#3284700958
1"
#3284775916
0"
#3284794958
1#
#3284890000
1"
#3284965000
0"
#3285009333
0#
#3285320125
1"
#3285383958
1#
#3285463125
0"
#3285583166
0#
#3285608208
1"
#3285683208
0"
#3285702250
1#
#3285797250
1"
#3285872250
0"
#3285963291
0#
#3285988333
1"
#3286063291
0"
#3286082333
1#
#3286154333
0#
#3286179375
1"
#3286254375
0"
#3286273416
1#
#3286345375
0#
#3286370416
1"
#3286445416
0"
#3286464458
1#
#3286559500
1"
#3286634458
0"
#3286725500
0#
#3286750541
1"
#3286825541
0"
#3286844583
1#
#3286939583
1"
#3287014583
0"
#3287058000
0#
#3287607791
1"
#3287663083
1#
#3287750791
0"
#3287893875
1"
#3287968875
0"
#3288082958
1"
#3288157916
0"
#3288272000
1"
#3288347000
0"
#3288461041
1"
#3288536041
0"
#3288627083
0#
#3288652125
1"
#3288727083
0"
#3288746125
1#
#3288818125
0#
#3288843166
1"
#3288918166
0"
#3288937208
1#
#3289032250
1"
#3289107208
0"
#3289221291
1"
#3289296250
0"
#3289331041
0#
#3289651416
1"
#3289716875
1#
#3289794416
0"
#3289914458
0#
#3289939500
1"
#3290014500
0"
#3290033541
1#
#3290105500
0#
#3290130541
1"
#3290205541
0"
#3290224583
1#
#3290296583
0#
#3290321625
1"
#3290396583
0"
#3290415625
1#
#3290487625
0#
#3290512666
1"
#3290587666
0"
#3290606708
1#
#3290678666
0#
#3290703750
1"
#3290778708
0"
#3290797750
1#
#3290892791
1"
#3290967791
0"
#3291058791
0#
#3291083833
1"
#3291158833
0"
#3291177875
1#
#3291272916
1"
#3291347875
0"
#3291392958
0#
#3291703041
1"
#3291751333
1#
#3291805041
0"
#3291948125
1"
#3292023083
0"
#3292137166
1"
#3292212166
0"
#3292303166
0#
#3292328208
1"
#3292403208
0"
#3292422250
1#
#3292494250
0#
#3292519291
1"
#3292594250
0"
#3292613291
1#
#3292685291
0#
#3292710333
1"
#3292785333
0"
#3292804375
1#
#3292876333
0#
#3292901375
1"
#3292976375
0"
#3292995416
1#
#3293067416
0#
#3293092458
1"
#3293167458
0"
#3293186500
1#
#3293258458
0#
#3293283500
1"
#3293358500
0"
#3293377541
1#
#3293400000
0#
#3293713625
1"
#3293816250
1#
#3293867666
0"
#3293987666
0#
#3294012750
1"
#3294087708
0"
#3294106750
1#
#3294178750
0#
#3294203791
1"
#3294278791
0"
#3294297833
1#
#3294369791
0#
#3294394833
1"
#3294469833
0"
#3294488875
1#
#3294560833
0#
#3294585916
1"
#3294660875
0"
#3294679916
1#
#3294751916
0#
#3294776958
1"
#3294851958
0"
#3294871000
1#
#3294966000
1"
#3295041000
0"
#3295132041
0#
#3295157083
1"
#3295232041
0"
#3295251083
1#
#3295323083
0#
#3295348125
1"
#3295423125
0"
#3295442166
1#
#3295464916
0#
#3295778250
1"
#3295839583
1#
#3295921250
0"
#3296064333
1"
#3296139333
0"
#3296230375
0#
#3296255416
1"
#3296330375
0"
#3296349416
1#
#3296444458
1"
#3296519458
0"
#3296610458
0#
#3296635541
1"
#3296710500
0"
#3296729541
1#
#3296801541
0#
#3296826583
1"
#3296901583
0"
#3296920583
1#
#3297015625
1"
#3297090625
0"
#3297181625
0#
#3297206708
1"
#3297281666
0"
#3297300708
1#
#3297395750
1"
#3297470750
0"
#3297514625
0#
#3297825875
1"
#3297889250
1#
#3297968875
0"
#3298111958
1"
#3298186958
0"
#3298301041
1"
#3298376000
0"
#3298467041
0#
#3298492083
1"
#3298567083
0"
#3298586125
1#
#3298658083
0#
#3298683125
1"
#3298758125
0"
#3298777166
1#
#3298849125
0#
#3298874208
1"
#3298949166
0"
#3298968208
1#
#3299040208
0#
#3299065250
1"
#3299140250
0"
#3299159291
1#
#3299231250
0#
#3299256291
1"
#3299331291
0"
#3299350333
1#
#3299422333
0#
#3299447375
1"
#3299522333
0"
#3299541375
1#
#3299564333
0#
#3299877500
1"
#3299938958
1#
#3300020500
0"
#3300140541
0#
#3300165583
1"
#3300240583
0"
#3300259625
1#
#3300354625
1"
#3300429625
0"
#3300520666
0#
#3300545708
1"
#3300620666
0"
#3300639708
1#
#3300711708
0#
#3300736750
1"
#3300811750
0"
#3300830791
1#
#3300902750
0#
#3300927833
1"
#3301002791
0"
#3301021833
1#
#3301116875
1"
#3301191833
0"
#3301282875
0#
#3301307916
1"
#3301382916
0"
#3301401958
1#
#3301497000
1"
#3301571958
0"
#3301617083
0#
#3301927125
1"
#3301991708
1#
