doc/gesammelte_infos/iec_bus_captures/emu64_turrican1.vcd
$version Emu64 Version 5.0.18 $end
$timescale 989 ns $end
$scope module IEC-BUS $end
$var wire 1 <000 c64_out_atn $end
$var wire 1 <001 c64_out_clk $end
$var wire 1 <002 c64_out_data $end
$var wire 1 <003 floppy_out_clk $end
$var wire 1 <004 floppy_out_data $end
$upscope $end
$enddefinitions $end
#0
#1
1<000
#1
1<002
#1
1<003
#1
1<004
#6849654
0<000
#6849655
0<004
#6850703
1<001
#6850790
1<004
#6850838
0<001
#6850886
0<002
#6850911
1<001
#6850937
0<001
#6850937
1<002
#6850982
0<002
#6851007
1<001
#6851033
0<001
#6851033
1<002
#6851078
0<002
#6851103
1<001
#6851129
0<001
#6851129
1<002
#6851197
1<001
#6851223
0<001
#6851268
0<002
#6851293
1<001
#6851319
0<001
#6851319
1<002
#6851387
1<001
#6851413
0<001
#6851458
0<002
#6851483
1<001
#6851509
0<001
#6851509
1<002
#6851554
0<002
#6851579
1<001
#6851605
0<001
#6851605
1<002
#6851677
0<004
#6852774
1<001
#6852809
1<004
#6852855
0<001
#6852903
0<002
#6852928
1<001
#6852954
0<001
#6852954
1<002
#6852999
0<002
#6853024
1<001
#6853050
0<001
#6853050
1<002
#6853095
0<002
#6853120
1<001
#6853146
0<001
#6853146
1<002
#6853191
0<002
#6853216
1<001
#6853242
0<001
#6853242
1<002
#6853310
1<001
#6853336
0<001
#6853404
1<001
#6853430
0<001
#6853498
1<001
#6853524
0<001
#6853592
1<001
#6853618
0<001
#6853696
0<004
#6853739
1<000
#6853906
1<001
#6853978
1<004
#6854296
0<004
#6854369
1<004
#6854416
0<001
#6854464
0<002
#6854489
1<001
#6854515
0<001
#6854515
1<002
#6854583
1<001
#6854609
0<001
#6854654
0<002
#6854679
1<001
#6854705
0<001
#6854705
1<002
#6854773
1<001
#6854799
0<001
#6854844
0<002
#6854869
1<001
#6854895
0<001
#6854895
1<002
#6854963
1<001
#6854989
0<001
#6855077
0<002
#6855102
1<001
#6855128
0<001
#6855128
1<002
#6855173
0<002
#6855198
1<001
#6855224
0<001
#6855224
1<002
#6855296
0<004
#6855380
0<000
#6856515
1<001
#6856601
1<004
#6856639
0<001
#6856710
1<001
#6856736
0<001
#6856804
1<001
#6856830
0<001
#6856898
1<001
#6856924
0<001
#6856992
1<001
#6857018
0<001
#6857129
1<001
#6857155
0<001
#6857223
1<001
#6857249
0<001
#6857294
0<002
#6857319
1<001
#6857345
0<001
#6857345
1<002
#6857390
0<002
#6857415
1<001
#6857441
0<001
#6857441
1<002
#6857514
0<004
#6857600
1<000
#6857649
1<004
#6857677
1<001
#6857806
0<000
#6857807
0<004
#6857824
0<001
#6858941
1<001
#9565539
1<004
#9565574
0<001
#9565622
0<002
#9565647
1<001
#9565673
0<001
#9565673
1<002
#9565718
0<002
#9565743
1<001
#9565769
0<001
#9565769
1<002
#9565814
0<002
#9565839
1<001
#9565865
0<001
#9565865
1<002
#9565933
1<001
#9565959
0<001
#9566004
0<002
#9566029
1<001
#9566055
0<001
#9566055
1<002
#9566100
0<002
#9566125
1<001
#9566151
0<001
#9566151
1<002
#9566219
1<001
#9566245
0<001
#9566290
0<002
#9566315
1<001
#9566341
0<001
#9566341
1<002
#9566413
0<004
#9567508
1<001
#9567550
1<004
#9567632
0<001
#9567680
0<002
#9567705
1<001
#9567731
0<001
#9567731
1<002
#9567776
0<002
#9567801
1<001
#9567827
0<001
#9567827
1<002
#9567872
0<002
#9567897
1<001
#9567923
0<001
#9567923
1<002
#9567968
0<002
#9567993
1<001
#9568019
0<001
#9568019
1<002
#9568106
0<002
#9568131
1<001
#9568157
0<001
#9568157
1<002
#9568225
1<001
#9568251
0<001
#9568319
1<001
#9568345
0<001
#9568390
0<002
#9568415
1<001
#9568441
0<001
#9568441
1<002
#9568519
0<004
#9568613
0<002
#9568635
1<000
#9568657
1<001
#9568689
1<004
#9568711
0<003
#9568849
1<003
#9568894
1<002
#9568940
0<003
#9569060
0<004
#9569085
1<003
#9569160
0<003
#9569179
1<004
#9569274
1<003
#9569349
0<003
#9569463
1<003
#9569538
0<003
#9569629
0<004
#9569654
1<003
#9569729
0<003
#9569748
1<004
#9569820
0<004
#9569845
1<003
#9569920
0<003
#9569939
1<004
#9570034
1<003
#9570109
0<003
#9570200
0<004
#9570225
1<003
#9570300
0<003
#9570319
1<004
#9570391
0<004
#9570416
1<003
#9570491
0<003
#9570510
1<004
#9570528
0<002
#9570846
1<003
#9570897
1<002
#9570989
0<003
#9571132
1<003
#9571207
0<003
#9571321
1<003
#9571396
0<003
#9571487
0<004
#9571512
1<003
#9571587
0<003
#9571606
1<004
#9571678
0<004
#9571703
1<003
#9571778
0<003
#9571797
1<004
#9571869
0<004
#9571894
1<003
#9571969
0<003
#9571988
1<004
#9572060
0<004
#9572085
1<003
#9572160
0<003
#9572179
1<004
#9572251
0<004
#9572276
1<003
#9572351
0<003
#9572370
1<004
#9572442
0<004
#9572467
1<003
#9572542
0<003
#9572561
1<004
#9572627
0<002
#9572949
1<003
#9575578
1<002
#9575640
0<003
#9575760
0<004
#9575785
1<003
#9575860
0<003
#9575879
1<004
#9575951
0<004
#9575976
1<003
#9576051
0<003
#9576070
1<004
#9576165
1<003
#9576240
0<003
#9576331
0<004
#9576356
1<003
#9576431
0<003
#9576450
1<004
#9576545
1<003
#9576620
0<003
#9576734
1<003
#9576809
0<003
#9576900
0<004
#9576925
1<003
#9577000
0<003
#9577019
1<004
#9577091
0<004
#9577116
1<003
#9577191
0<003
#9577210
1<004
#9577231
0<002
#9577546
1<003
#9577611
1<002
#9577689
0<003
#9577832
1<003
#9577907
0<003
#9578021
1<003
#9578096
0<003
#9578187
0<004
#9578212
1<003
#9578287
0<003
#9578306
1<004
#9578378
0<004
#9578403
1<003
#9578478
0<003
#9578497
1<004
#9578569
0<004
#9578594
1<003
#9578669
0<003
#9578688
1<004
#9578760
0<004
#9578785
1<003
#9578860
0<003
#9578879
1<004
#9578951
0<004
#9578976
1<003
#9579051
0<003
#9579070
1<004
#9579142
0<004
#9579167
1<003
#9579242
0<003
#9579261
1<004
#9579277
0<002
#9579835
1<003
#9579889
1<002
#9579978
0<003
#9580121
1<003
#9580196
0<003
#9580287
0<004
#9580312
1<003
#9580387
0<003
#9580406
1<004
#9580501
1<003
#9580576
0<003
#9580690
1<003
#9580765
0<003
#9580856
0<004
#9580881
1<003
#9580956
0<003
#9580975
1<004
#9581070
1<003
#9581145
0<003
#9581259
1<003
#9581334
0<003
#9581448
1<003
#9581523
0<003
#9581564
0<002
#9581878
1<003
#9581944
1<002
#9582021
0<003
#9582141
0<004
#9582166
1<003
#9582241
0<003
#9582260
1<004
#9582355
1<003
#9582430
0<003
#9582544
1<003
#9582619
0<003
#9582710
0<004
#9582735
1<003
#9582810
0<003
#9582829
1<004
#9582924
1<003
#9582999
0<003
#9583113
1<003
#9583188
0<003
#9583302
1<003
#9583377
0<003
#9583491
1<003
#9583566
0<003
#9583608
0<002
#9583921
1<003
#9583972
1<002
#9584064
0<003
#9584184
0<004
#9584209
1<003
#9584284
0<003
#9584303
1<004
#9584398
1<003
#9584473
0<003
#9584587
1<003
#9584662
0<003
#9584776
1<003
#9584851
0<003
#9584965
1<003
#9585040
0<003
#9585154
1<003
#9585229
0<003
#9585320
0<004
#9585345
1<003
#9585420
0<003
#9585439
1<004
#9585511
0<004
#9585536
1<003
#9585611
0<003
#9585630
1<004
#9585654
0<002
#9585966
1<003
#9586018
1<002
#9586109
0<003
#9586252
1<003
#9586327
0<003
#9586418
0<004
#9586443
1<003
#9586518
0<003
#9586537
1<004
#9586609
0<004
#9586634
1<003
#9586709
0<003
#9586728
1<004
#9586800
0<004
#9586825
1<003
#9586900
0<003
#9586919
1<004
#9587014
1<003
#9587089
0<003
#9587203
1<003
#9587278
0<003
#9587392
1<003
#9587467
0<003
#9587581
1<003
#9587656
0<003
#9587699
0<002
#9588011
1<003
#9588068
1<002
#9588154
0<003
#9588297
1<003
#9588372
0<003
#9588486
1<003
#9588561
0<003
#9588675
1<003
#9588750
0<003
#9588864
1<003
#9588939
0<003
#9589030
0<004
#9589055
1<003
#9589130
0<003
#9589149
1<004
#9589244
1<003
#9589319
0<003
#9589410
0<004
#9589435
1<003
#9589510
0<003
#9589529
1<004
#9589601
0<004
#9589626
1<003
#9589701
0<003
#9589720
1<004
#9589781
0<002
#9590108
1<003
#9590191
1<002
#9590251
0<003
#9590394
1<003
#9590469
0<003
#9590583
1<003
#9590658
0<003
#9590749
0<004
#9590774
1<003
#9590849
0<003
#9590868
1<004
#9590940
0<004
#9590965
1<003
#9591040
0<003
#9591059
1<004
#9591154
1<003
#9591229
0<003
#9591343
1<003
#9591418
0<003
#9591532
1<003
#9591607
0<003
#9591721
1<003
#9591796
0<003
#9591837
0<002
#9592151
1<003
#9592217
1<002
#9592294
0<003
#9592414
0<004
#9592439
1<003
#9592514
0<003
#9592533
1<004
#9592628
1<003
#9592703
0<003
#9592817
1<003
#9592892
0<003
#9592983
0<004
#9593008
1<003
#9593083
0<003
#9593102
1<004
#9593174
0<004
#9593199
1<003
#9593274
0<003
#9593293
1<004
#9593388
1<003
#9593463
0<003
#9593577
1<003
#9593652
0<003
#9593743
0<004
#9593768
1<003
#9593843
0<003
#9593862
1<004
#9593878
0<002
#9594198
1<003
#9594301
1<002
#9594393
0<003
#9594513
0<004
#9594538
1<003
#9594613
0<003
#9594632
1<004
#9594727
1<003
#9594802
0<003
#9594916
1<003
#9594991
0<003
#9595105
1<003
#9595180
0<003
#9595294
1<003
#9595369
0<003
#9595483
1<003
#9595558
0<003
#9595672
1<003
#9595747
0<003
#9595861
1<003
#9595936
0<003
#9595978
0<002
#9596529
1<003
#9596590
1<002
#9596672
0<003
#9596815
1<003
#9596890
0<003
#9596981
0<004
#9597006
1<003
#9597081
0<003
#9597100
1<004
#9597195
1<003
#9597270
0<003
#9597361
0<004
#9597386
1<003
#9597461
0<003
#9597480
1<004
#9597552
0<004
#9597577
1<003
#9597652
0<003
#9597671
1<004
#9597766
1<003
#9597841
0<003
#9597932
0<004
#9597957
1<003
#9598032
0<003
#9598051
1<004
#9598146
1<003
#9598221
0<003
#9598261
0<002
#9598576
1<003
#9598630
1<002
#9598719
0<003
#9598839
0<004
#9598864
1<003
#9598939
0<003
#9598958
1<004
#9599030
0<004
#9599055
1<003
#9599130
0<003
#9599149
1<004
#9599244
1<003
#9599319
0<003
#9599410
0<004
#9599435
1<003
#9599510
0<003
#9599529
1<004
#9599624
1<003
#9599699
0<003
#9599813
1<003
#9599888
0<003
#9600002
1<003
#9600077
0<003
#9600191
1<003
#9600266
0<003
#9600309
0<002
#9600621
1<003
#9600673
1<002
#9600764
0<003
#9600907
1<003
#9600982
0<003
#9601073
0<004
#9601098
1<003
#9601173
0<003
#9601192
1<004
#9601287
1<003
#9601362
0<003
#9601476
1<003
#9601551
0<003
#9601642
0<004
#9601667
1<003
#9601742
0<003
#9601761
1<004
#9601856
1<003
#9601931
0<003
#9602045
1<003
#9602120
0<003
#9602234
1<003
#9602309
0<003
#9602352
0<002
#9602664
1<003
#9602716
1<002
#9602807
0<003
#9602950
1<003
#9603025
0<003
#9603116
0<004
#9603141
1<003
#9603216
0<003
#9603235
1<004
#9603330
1<003
#9603405
0<003
#9603496
0<004
#9603521
1<003
#9603596
0<003
#9603615
1<004
#9603710
1<003
#9603785
0<003
#9603899
1<003
#9603974
0<003
#9604088
1<003
#9604163
0<003
#9604277
1<003
#9604352
0<003
#9604394
0<002
#9604707
1<003
#9604758
1<002
#9604850
0<003
#9604970
0<004
#9604995
1<003
#9605070
0<003
#9605089
1<004
#9605161
0<004
#9605186
1<003
#9605261
0<003
#9605280
1<004
#9605352
0<004
#9605377
1<003
#9605452
0<003
#9605471
1<004
#9605566
1<003
#9605641
0<003
#9605755
1<003
#9605830
0<003
#9605921
0<004
#9605946
1<003
#9606021
0<003
#9606040
1<004
#9606135
1<003
#9606210
0<003
#9606324
1<003
#9606399
0<003
#9606441
0<002
#9606754
1<003
#9606851
1<002
#9606897
0<003
#9607040
1<003
#9607115
0<003
#9607206
0<004
#9607231
1<003
#9607306
0<003
#9607325
1<004
#9607397
0<004
#9607422
1<003
#9607497
0<003
#9607516
1<004
#9607611
1<003
#9607686
0<003
#9607777
0<004
#9607802
1<003
#9607877
0<003
#9607896
1<004
#9607991
1<003
#9608066
0<003
#9608157
0<004
#9608182
1<003
#9608257
0<003
#9608276
1<004
#9608371
1<003
#9608446
0<003
#9608485
0<002
#9608801
1<003
#9608865
1<002
#9608944
0<003
#9609064
0<004
#9609089
1<003
#9609164
0<003
#9609183
1<004
#9609278
1<003
#9609353
0<003
#9609444
0<004
#9609469
1<003
#9609544
0<003
#9609563
1<004
#9609658
1<003
#9609733
0<003
#9609824
0<004
#9609849
1<003
#9609924
0<003
#9609943
1<004
#9610015
0<004
#9610040
1<003
#9610115
0<003
#9610134
1<004
#9610229
1<003
#9610304
0<003
#9610418
1<003
#9610493
0<003
#9610529
0<002
#9610848
1<003
#9610952
1<002
#9611043
0<003
#9611186
1<003
#9611261
0<003
#9611352
0<004
#9611377
1<003
#9611452
0<003
#9611471
1<004
#9611566
1<003
#9611641
0<003
#9611755
1<003
#9611830
0<003
#9611921
0<004
#9611946
1<003
#9612021
0<003
#9612040
1<004
#9612112
0<004
#9612137
1<003
#9612212
0<003
#9612231
1<004
#9612303
0<004
#9612328
1<003
#9612403
0<003
#9612422
1<004
#9612517
1<003
#9612592
0<003
#9612629
0<002
#9613185
1<003
#9613241
1<002
#9613328
0<003
#9613448
0<004
#9613473
1<003
#9613548
0<003
#9613567
1<004
#9613662
1<003
#9613737
0<003
#9613851
1<003
#9613926
0<003
#9614017
0<004
#9614042
1<003
#9614117
0<003
#9614136
1<004
#9614208
0<004
#9614233
1<003
#9614308
0<003
#9614327
1<004
#9614422
1<003
#9614497
0<003
#9614588
0<004
#9614613
1<003
#9614688
0<003
#9614707
1<004
#9614779
0<004
#9614804
1<003
#9614879
0<003
#9614898
1<004
#9614964
0<002
#9615286
1<003
#9615344
1<002
#9615429
0<003
#9615572
1<003
#9615647
0<003
#9615761
1<003
#9615836
0<003
#9615927
0<004
#9615952
1<003
#9616027
0<003
#9616046
1<004
#9616118
0<004
#9616143
1<003
#9616218
0<003
#9616237
1<004
#9616309
0<004
#9616334
1<003
#9616409
0<003
#9616428
1<004
#9616500
0<004
#9616525
1<003
#9616600
0<003
#9616619
1<004
#9616691
0<004
#9616716
1<003
#9616791
0<003
#9616810
1<004
#9616882
0<004
#9616907
1<003
#9616982
0<003
#9617001
1<004
#9617022
0<002
#9617337
1<003
#9617402
1<002
#9617480
0<003
#9617623
1<003
#9617698
0<003
#9617789
0<004
#9617814
1<003
#9617889
0<003
#9617908
1<004
#9617980
0<004
#9618005
1<003
#9618080
0<003
#9618099
1<004
#9618194
1<003
#9618269
0<003
#9618360
0<004
#9618385
1<003
#9618460
0<003
#9618479
1<004
#9618574
1<003
#9618649
0<003
#9618740
0<004
#9618765
1<003
#9618840
0<003
#9618859
1<004
#9618954
1<003
#9619029
0<003
#9619068
0<002
#9619384
1<003
#9619448
1<002
#9619527
0<003
#9619670
1<003
#9619745
0<003
#9619836
0<004
#9619861
1<003
#9619936
0<003
#9619955
1<004
#9620027
0<004
#9620052
1<003
#9620127
0<003
#9620146
1<004
#9620218
0<004
#9620243
1<003
#9620318
0<003
#9620337
1<004
#9620432
1<003
#9620507
0<003
#9620621
1<003
#9620696
0<003
#9620810
1<003
#9620885
0<003
#9620999
1<003
#9621074
0<003
#9621116
0<002
#9621429
1<003
#9621480
1<002
#9621572
0<003
#9621715
1<003
#9621790
0<003
#9621881
0<004
#9621906
1<003
#9621981
0<003
#9622000
1<004
#9622095
1<003
#9622170
0<003
#9622284
1<003
#9622359
0<003
#9622450
0<004
#9622475
1<003
#9622550
0<003
#9622569
1<004
#9622641
0<004
#9622666
1<003
#9622741
0<003
#9622760
1<004
#9622832
0<004
#9622857
1<003
#9622932
0<003
#9622951
1<004
#9623046
1<003
#9623121
0<003
#9623162
0<002
#9623476
1<003
#9623572
1<002
#9623619
0<003
#9623762
1<003
#9623837
0<003
#9623951
1<003
#9624026
0<003
#9624140
1<003
#9624215
0<003
#9624306
0<004
#9624331
1<003
#9624406
0<003
#9624425
1<004
#9624497
0<004
#9624522
1<003
#9624597
0<003
#9624616
1<004
#9624711
1<003
#9624786
0<003
#9624877
0<004
#9624902
1<003
#9624977
0<003
#9624996
1<004
#9625068
0<004
#9625093
1<003
#9625168
0<003
#9625187
1<004
#9625205
0<002
#9625523
1<003
#9625585
1<002
#9625666
0<003
#9625809
1<003
#9625884
0<003
#9625998
1<003
#9626073
0<003
#9626164
0<004
#9626189
1<003
#9626264
0<003
#9626283
1<004
#9626355
0<004
#9626380
1<003
#9626455
0<003
#9626474
1<004
#9626546
0<004
#9626571
1<003
#9626646
0<003
#9626665
1<004
#9626737
0<004
#9626762
1<003
#9626837
0<003
#9626856
1<004
#9626928
0<004
#9626953
1<003
#9627028
0<003
#9627047
1<004
#9627119
0<004
#9627144
1<003
#9627219
0<003
#9627238
1<004
#9627256
0<002
#9627574
1<003
#9627625
1<002
#9627717
0<003
#9627860
1<003
#9627935
0<003
#9628026
0<004
#9628051
1<003
#9628126
0<003
#9628145
1<004
#9628217
0<004
#9628242
1<003
#9628317
0<003
#9628336
1<004
#9628431
1<003
#9628506
0<003
#9628597
0<004
#9628622
1<003
#9628697
0<003
#9628716
1<004
#9628811
1<003
#9628886
0<003
#9628977
0<004
#9629002
1<003
#9629077
0<003
#9629096
1<004
#9629191
1<003
#9629266
0<003
#9629308
0<002
#9629859
1<003
#9629920
1<002
#9630002
0<003
#9630122
0<004
#9630147
1<003
#9630222
0<003
#9630241
1<004
#9630313
0<004
#9630338
1<003
#9630413
0<003
#9630432
1<004
#9630504
0<004
#9630529
1<003
#9630604
0<003
#9630623
1<004
#9630695
0<004
#9630720
1<003
#9630795
0<003
#9630814
1<004
#9630886
0<004
#9630911
1<003
#9630986
0<003
#9631005
1<004
#9631077
0<004
#9631102
1<003
#9631177
0<003
#9631196
1<004
#9631268
0<004
#9631293
1<003
#9631368
0<003
#9631387
1<004
#9631459
0<004
#9631484
1<003
#9631559
0<003
#9631578
1<004
#9631635
0<002
#9631966
1<003
#9632015
1<002
#9632068
0<003
#9632211
1<003
#9632286
0<003
#9632377
0<004
#9632402
1<003
#9632477
0<003
#9632496
1<004
#9632591
1<003
#9632666
0<003
#9632780
1<003
#9632855
0<003
#9632946
0<004
#9632971
1<003
#9633046
0<003
#9633065
1<004
#9633137
0<004
#9633162
1<003
#9633237
0<003
#9633256
1<004
#9633328
0<004
#9633353
1<003
#9633428
0<003
#9633447
1<004
#9633542
1<003
#9633617
0<003
#9633654
0<002
#9633972
1<003
#9634034
1<002
#9634115
0<003
#9634235
0<004
#9634260
1<003
#9634335
0<003
#9634354
1<004
#9634426
0<004
#9634451
1<003
#9634526
0<003
#9634545
1<004
#9634617
0<004
#9634642
1<003
#9634717
0<003
#9634736
1<004
#9634808
0<004
#9634833
1<003
#9634908
0<003
#9634927
1<004
#9634999
0<004
#9635024
1<003
#9635099
0<003
#9635118
1<004
#9635213
1<003
#9635288
0<003
#9635379
0<004
#9635404
1<003
#9635479
0<003
#9635498
1<004
#9635570
0<004
#9635595
1<003
#9635670
0<003
#9635689
1<004
#9635711
0<002
#9636025
1<003
#9636134
1<002
#9636220
0<003
#9636363
1<003
#9636438
0<003
#9636529
0<004
#9636554
1<003
#9636629
0<003
#9636648
1<004
#9636720
0<004
#9636745
1<003
#9636820
0<003
#9636839
1<004
#9636911
0<004
#9636936
1<003
#9637011
0<003
#9637030
1<004
#9637125
1<003
#9637200
0<003
#9637291
0<004
#9637316
1<003
#9637391
0<003
#9637410
1<004
#9637505
1<003
#9637580
0<003
#9637694
1<003
#9637769
0<003
#9637810
0<002
#9638124
1<003
#9638206
1<002
#9638267
0<003
#9638410
1<003
#9638485
0<003
#9638576
0<004
#9638601
1<003
#9638676
0<003
#9638695
1<004
#9638790
1<003
#9638865
0<003
#9638979
1<003
#9639054
0<003
#9639145
0<004
#9639170
1<003
#9639245
0<003
#9639264
1<004
#9639336
0<004
#9639361
1<003
#9639436
0<003
#9639455
1<004
#9639527
0<004
#9639552
1<003
#9639627
0<003
#9639646
1<004
#9639741
1<003
#9639816
0<003
#9639855
0<002
#9640171
1<003
#9640265
1<002
#9640314
0<003
#9640457
1<003
#9640532
0<003
#9640623
0<004
#9640648
1<003
#9640723
0<003
#9640742
1<004
#9640814
0<004
#9640839
1<003
#9640914
0<003
#9640933
1<004
#9641005
0<004
#9641030
1<003
#9641105
0<003
#9641124
1<004
#9641196
0<004
#9641221
1<003
#9641296
0<003
#9641315
1<004
#9641410
1<003
#9641485
0<003
#9641576
0<004
#9641601
1<003
#9641676
0<003
#9641695
1<004
#9641767
0<004
#9641792
1<003
#9641867
0<003
#9641886
1<004
#9641909
0<002
#9642222
1<003
#9642273
1<002
#9642365
0<003
#9642485
0<004
#9642510
1<003
#9642585
0<003
#9642604
1<004
#9642699
1<003
#9642774
0<003
#9642865
0<004
#9642890
1<003
#9642965
0<003
#9642984
1<004
#9643056
0<004
#9643081
1<003
#9643156
0<003
#9643175
1<004
#9643270
1<003
#9643345
0<003
#9643436
0<004
#9643461
1<003
#9643536
0<003
#9643555
1<004
#9643650
1<003
#9643725
0<003
#9643839
1<003
#9643914
0<003
#9643955
0<002
#9644269
1<003
#9644335
1<002
#9644412
0<003
#9644555
1<003
#9644630
0<003
#9644721
0<004
#9644746
1<003
#9644821
0<003
#9644840
1<004
#9644935
1<003
#9645010
0<003
#9645124
1<003
#9645199
0<003
#9645290
0<004
#9645315
1<003
#9645390
0<003
#9645409
1<004
#9645481
0<004
#9645506
1<003
#9645581
0<003
#9645600
1<004
#9645672
0<004
#9645697
1<003
#9645772
0<003
#9645791
1<004
#9645886
1<003
#9645961
0<003
#9646002
0<002
#9646554
1<003
#9646614
1<002
#9646697
0<003
#9646840
1<003
#9646915
0<003
#9647006
0<004
#9647031
1<003
#9647106
0<003
#9647125
1<004
#9647197
0<004
#9647222
1<003
#9647297
0<003
#9647316
1<004
#9647388
0<004
#9647413
1<003
#9647488
0<003
#9647507
1<004
#9647602
1<003
#9647677
0<003
#9647768
0<004
#9647793
1<003
#9647868
0<003
#9647887
1<004
#9647982
1<003
#9648057
0<003
#9648171
1<003
#9648246
0<003
#9648286
0<002
#9648601
1<003
#9648666
1<002
#9648744
0<003
#9648887
1<003
#9648962
0<003
#9649053
0<004
#9649078
1<003
#9649153
0<003
#9649172
1<004
#9649244
0<004
#9649269
1<003
#9649344
0<003
#9649363
1<004
#9649435
0<004
#9649460
1<003
#9649535
0<003
#9649554
1<004
#9649649
1<003
#9649724
0<003
#9649815
0<004
#9649840
1<003
#9649915
0<003
#9649934
1<004
#9650029
1<003
#9650104
0<003
#9650218
1<003
#9650293
0<003
#9650332
0<002
#9650648
1<003
#9650755
1<002
#9650843
0<003
#9650986
1<003
#9651061
0<003
#9651152
0<004
#9651177
1<003
#9651252
0<003
#9651271
1<004
#9651366
1<003
#9651441
0<003
#9651555
1<003
#9651630
0<003
#9651721
0<004
#9651746
1<003
#9651821
0<003
#9651840
1<004
#9651912
0<004
#9651937
1<003
#9652012
0<003
#9652031
1<004
#9652103
0<004
#9652128
1<003
#9652203
0<003
#9652222
1<004
#9652317
1<003
#9652392
0<003
#9652429
0<002
#9652747
1<003
#9652825
1<002
#9652890
0<003
#9653033
1<003
#9653108
0<003
#9653199
0<004
#9653224
1<003
#9653299
0<003
#9653318
1<004
#9653413
1<003
#9653488
0<003
#9653579
0<004
#9653604
1<003
#9653679
0<003
#9653698
1<004
#9653793
1<003
#9653868
0<003
#9653959
0<004
#9653984
1<003
#9654059
0<003
#9654078
1<004
#9654150
0<004
#9654175
1<003
#9654250
0<003
#9654269
1<004
#9654341
0<004
#9654366
1<003
#9654441
0<003
#9654460
1<004
#9654478
0<002
#9654796
1<003
#9654847
1<002
#9654939
0<003
#9655059
0<004
#9655084
1<003
#9655159
0<003
#9655178
1<004
#9655250
0<004
#9655275
1<003
#9655350
0<003
#9655369
1<004
#9655441
0<004
#9655466
1<003
#9655541
0<003
#9655560
1<004
#9655632
0<004
#9655657
1<003
#9655732
0<003
#9655751
1<004
#9655846
1<003
#9655921
0<003
#9656012
0<004
#9656037
1<003
#9656112
0<003
#9656131
1<004
#9656226
1<003
#9656301
0<003
#9656415
1<003
#9656490
0<003
#9656531
0<002
#9656845
1<003
#9656900
1<002
#9656988
0<003
#9657131
1<003
#9657206
0<003
#9657297
0<004
#9657322
1<003
#9657397
0<003
#9657416
1<004
#9657511
1<003
#9657586
0<003
#9657677
0<004
#9657702
1<003
#9657777
0<003
#9657796
1<004
#9657868
0<004
#9657893
1<003
#9657968
0<003
#9657987
1<004
#9658059
0<004
#9658084
1<003
#9658159
0<003
#9658178
1<004
#9658250
0<004
#9658275
1<003
#9658350
0<003
#9658369
1<004
#9658464
1<003
#9658539
0<003
#9658579
0<002
#9658894
1<003
#9658959
1<002
#9659037
0<003
#9659180
1<003
#9659255
0<003
#9659346
0<004
#9659371
1<003
#9659446
0<003
#9659465
1<004
#9659560
1<003
#9659635
0<003
#9659749
1<003
#9659824
0<003
#9659938
1<003
#9660013
0<003
#9660104
0<004
#9660129
1<003
#9660204
0<003
#9660223
1<004
#9660295
0<004
#9660320
1<003
#9660395
0<003
#9660414
1<004
#9660509
1<003
#9660584
0<003
#9660623
0<002
#9660939
1<003
#9661003
1<002
#9661082
0<003
#9661202
0<004
#9661227
1<003
#9661302
0<003
#9661321
1<004
#9661416
1<003
#9661491
0<003
#9661582
0<004
#9661607
1<003
#9661682
0<003
#9661701
1<004
#9661773
0<004
#9661798
1<003
#9661873
0<003
#9661892
1<004
#9661964
0<004
#9661989
1<003
#9662064
0<003
#9662083
1<004
#9662178
1<003
#9662253
0<003
#9662344
0<004
#9662369
1<003
#9662444
0<003
#9662463
1<004
#9662558
1<003
#9662633
0<003
#9662674
0<002
#9663226
1<003
#9663270
1<002
#9663317
0<003
#9663460
1<003
#9663535
0<003
#9663649
1<003
#9663724
0<003
#9663838
1<003
#9663913
0<003
#9664027
1<003
#9664102
0<003
#9664193
0<004
#9664218
1<003
#9664293
0<003
#9664312
1<004
#9664384
0<004
#9664409
1<003
#9664484
0<003
#9664503
1<004
#9664598
1<003
#9664673
0<003
#9664787
1<003
#9664862
0<003
#9664903
0<002
#9665217
1<003
#9665283
1<002
#9665360
0<003
#9665480
0<004
#9665505
1<003
#9665580
0<003
#9665599
1<004
#9665671
0<004
#9665696
1<003
#9665771
0<003
#9665790
1<004
#9665862
0<004
#9665887
1<003
#9665962
0<003
#9665981
1<004
#9666053
0<004
#9666078
1<003
#9666153
0<003
#9666172
1<004
#9666244
0<004
#9666269
1<003
#9666344
0<003
#9666363
1<004
#9666458
1<003
#9666533
0<003
#9666624
0<004
#9666649
1<003
#9666724
0<003
#9666743
1<004
#9666838
1<003
#9666913
0<003
#9666955
0<002
#9667268
1<003
#9667319
1<002
#9667411
0<003
#9667554
1<003
#9667629
0<003
#9667743
1<003
#9667818
0<003
#9667909
0<004
#9667934
1<003
#9668009
0<003
#9668028
1<004
#9668100
0<004
#9668125
1<003
#9668200
0<003
#9668219
1<004
#9668291
0<004
#9668316
1<003
#9668391
0<003
#9668410
1<004
#9668482
0<004
#9668507
1<003
#9668582
0<003
#9668601
1<004
#9668673
0<004
#9668698
1<003
#9668773
0<003
#9668792
1<004
#9668864
0<004
#9668889
1<003
#9668964
0<003
#9668983
1<004
#9669004
0<002
#9669319
1<003
#9669427
1<002
#9669514
0<003
#9669634
0<004
#9669659
1<003
#9669734
0<003
#9669753
1<004
#9669825
0<004
#9669850
1<003
#9669925
0<003
#9669944
1<004
#9670016
0<004
#9670041
1<003
#9670116
0<003
#9670135
1<004
#9670207
0<004
#9670232
1<003
#9670307
0<003
#9670326
1<004
#9670398
0<004
#9670423
1<003
#9670498
0<003
#9670517
1<004
#9670612
1<003
#9670687
0<003
#9670778
0<004
#9670803
1<003
#9670878
0<003
#9670897
1<004
#9670969
0<004
#9670994
1<003
#9671069
0<003
#9671088
1<004
#9671110
0<002
#9671424
1<003
#9671479
1<002
#9671567
0<003
#9671710
1<003
#9671785
0<003
#9671876
0<004
#9671901
1<003
#9671976
0<003
#9671995
1<004
#9672090
1<003
#9672165
0<003
#9672256
0<004
#9672281
1<003
#9672356
0<003
#9672375
1<004
#9672447
0<004
#9672472
1<003
#9672547
0<003
#9672566
1<004
#9672661
1<003
#9672736
0<003
#9672827
0<004
#9672852
1<003
#9672927
0<003
#9672946
1<004
#9673041
1<003
#9673116
0<003
#9673158
0<002
#9673471
1<003
#9673527
1<002
#9673614
0<003
#9673757
1<003
#9673832
0<003
#9673946
1<003
#9674021
0<003
#9674112
0<004
#9674137
1<003
#9674212
0<003
#9674231
1<004
#9674303
0<004
#9674328
1<003
#9674403
0<003
#9674422
1<004
#9674494
0<004
#9674519
1<003
#9674594
0<003
#9674613
1<004
#9674685
0<004
#9674710
1<003
#9674785
0<003
#9674804
1<004
#9674876
0<004
#9674901
1<003
#9674976
0<003
#9674995
1<004
#9675067
0<004
#9675092
1<003
#9675167
0<003
#9675186
1<004
#9675210
0<002
#9675522
1<003
#9675579
1<002
#9675665
0<003
#9675785
0<004
#9675810
1<003
#9675885
0<003
#9675904
1<004
#9675999
1<003
#9676074
0<003
#9676165
0<004
#9676190
1<003
#9676265
0<003
#9676284
1<004
#9676356
0<004
#9676381
1<003
#9676456
0<003
#9676475
1<004
#9676547
0<004
#9676572
1<003
#9676647
0<003
#9676666
1<004
#9676761
1<003
